2.528763518524170024e+02
2.712558080673217731e+01
1.812479536056518725e+01
1.641009658813476690e+01
1.513009889602661140e+01
1.398799470901489173e+01
1.292583431243896541e+01
1.211964873313903723e+01
1.144184582710266085e+01
1.087927958488464419e+01
1.048063920021057172e+01
1.013995181083679142e+01
9.896549606323242543e+00
9.460508174896240519e+00
9.250885276794432954e+00
9.153496980667114258e+00
8.879169292449951456e+00
8.758916020393371582e+00
8.594047069549560547e+00
8.427782225608826394e+00
8.406145052909851145e+00
8.406087384223937420e+00
8.124065008163452006e+00
8.179357933998108621e+00
8.113480653762817241e+00
8.022351517677307697e+00
8.049997062683106108e+00
7.955444836616516469e+00
7.653023829460144256e+00
7.546377248764038370e+00
7.532679386138916300e+00
7.512546186447143448e+00
7.280883789062500000e+00
7.278625907897949610e+00
7.222076268196105708e+00
7.209842710494995366e+00
7.183084125518798935e+00
7.156058216094971058e+00
7.135357441902161035e+00
7.132607240676879456e+00
7.121625332832336674e+00
7.077893762588501225e+00
7.056006469726562536e+00
6.985804767608642329e+00
6.934321722984313929e+00
6.928027844429015758e+00
6.886926412582397461e+00
6.838453488349914622e+00
6.800912923812866495e+00
6.893484411239623633e+00
