2.750196631240844454e+02
2.729346281051635614e+01
1.860670133590698327e+01
1.673278703689575053e+01
1.559627594947814977e+01
1.442327680587768590e+01
1.387498500823974545e+01
1.325726102828979514e+01
1.279882266044616657e+01
1.225480310440063469e+01
1.188069521903991621e+01
1.159529134750366275e+01
1.110161364555358965e+01
1.090247970581054737e+01
1.058490865707397433e+01
1.033935048103332477e+01
1.006264551162719734e+01
9.869621191024780416e+00
9.750044059753417258e+00
9.503194541931152983e+00
9.265546493530273153e+00
9.209568138122557812e+00
9.045974154472350648e+00
8.841607041358948038e+00
8.807529559135437225e+00
8.627485880851745392e+00
8.597184281349182555e+00
8.412064085006713654e+00
8.349794993400573517e+00
8.300613527297974414e+00
8.288948340415954519e+00
8.125046863555908772e+00
7.859967045783996298e+00
7.714146494865417480e+00
7.814564304351806712e+00
7.716607303619384517e+00
7.672008380889892898e+00
7.627042198181152699e+00
7.584858641624451003e+00
7.641353878974914693e+00
7.503591403961181960e+00
7.503741974830627548e+00
7.463381352424621973e+00
7.478194546699524103e+00
7.394356374740600479e+00
7.347862992286682271e+00
7.400258874893188121e+00
7.268215060234069824e+00
7.215333824157714737e+00
7.169634909629821529e+00
