2.359519702529907192e+02
2.737017719268798999e+01
1.890130001068115106e+01
1.713730528831482047e+01
1.630321670532226719e+01
1.534178736686706479e+01
1.425084923744201681e+01
1.337360610008239803e+01
1.258903803825378453e+01
1.194488882064819357e+01
1.141220304489135806e+01
1.100589969635009702e+01
1.052685732841491628e+01
1.021758504867553796e+01
9.927955360412598296e+00
9.683040084838866690e+00
9.410205688476562358e+00
9.227430515289306356e+00
9.149185914993285706e+00
8.912649841308594389e+00
8.865365486145019958e+00
8.973656644821167205e+00
8.623158802986145233e+00
8.657915163040161843e+00
8.332440309524535849e+00
8.269812774658202414e+00
8.160046968460083150e+00
8.117676391601563068e+00
8.019958696365357298e+00
7.973613524436951039e+00
7.836311049461365030e+00
7.836024651527404572e+00
7.862284450531006108e+00
7.709027819633483603e+00
7.635504412651061834e+00
7.702588872909545969e+00
7.667569131851196040e+00
7.588081936836243102e+00
7.588147315979004048e+00
7.591060714721679759e+00
7.587562661170959899e+00
7.516583809852599884e+00
7.538765664100647079e+00
7.470878796577453684e+00
7.438780236244201483e+00
7.415258851051330424e+00
7.437204084396362269e+00
7.361017303466796946e+00
7.350738677978515767e+00
7.253088545799255549e+00
