2.605364979171752680e+02
2.811463819503784123e+01
1.848842128753662095e+01
1.675336761474609304e+01
1.560739215850830064e+01
1.456615872383117605e+01
1.397846466064453175e+01
1.355459964752197344e+01
1.300123078346252470e+01
1.269542175292968800e+01
1.231469823837280231e+01
1.193967602729797406e+01
1.167335523605346737e+01
1.134906788825988855e+01
1.103420838356018052e+01
1.084710523605346744e+01
1.066925741195678690e+01
1.045167610168457095e+01
1.013786049842834558e+01
1.005759587287902868e+01
9.866237792968750142e+00
9.689059200286864737e+00
9.530467348098754954e+00
9.424536771774292276e+00
9.265814580917357546e+00
9.183655004501343200e+00
9.040889301300047975e+00
9.092924232482909375e+00
9.049143633842469114e+00
8.750889678001403382e+00
8.685995073318482085e+00
8.605980343818664835e+00
8.532491269111632803e+00
8.315947351455688974e+00
8.266676316261291291e+00
8.191977400779723695e+00
8.171841955184936168e+00
8.129403519630432839e+00
7.994968247413635432e+00
8.093895425796509002e+00
7.934470472335815039e+00
7.911822595596313512e+00
7.821561651229858469e+00
7.808862819671630540e+00
7.775808367729187154e+00
7.644833755493164240e+00
7.688227787017821946e+00
7.644959726333618200e+00
7.647859387397765829e+00
7.643825583457946493e+00
